{
  "name": "Octillery",
  "nationalPokedexNumber": 224,
  "primaryType": "water",
  "abilities": [
    "suctioncups",
    "sniper",
    "h:moody"
  ],
  "baseStats": {
    "hp": 75,
    "attack": 105,
    "defence": 75,
    "special_attack": 105,
    "special_defence": 75,
    "speed": 45
  },
  "catchRate": 75,
  "maleRatio": 0.5,
  "shoulderMountable": false,
  "baseExperienceYield": 168,
  "experienceGroup": "medium_fast",
  "eggCycles": 20,
  "eggGroups": [
    "water_1",
    "water_2"
  ],
  "moves": [
    "1:constrict",
    "1:focusenergy",
    "1:gunkshot",
    "1:helpinghand",
    "1:octazooka",
    "1:rockblast",
    "1:watergun",
    "1:waterpulse",
    "1:wrap",
    "12:psybeam",
    "16:aurorabeam",
    "20:bubblebeam",
    "24:lockon",
    "28:wringout",
    "30:bulletseed",
    "34:signalbeam",
    "36:icebeam",
    "42:hydropump",
    "48:soak",
    "54:hyperbeam",
    "tm:assurance",
    "tm:attract",
    "tm:blizzard",
    "tm:bounce",
    "tm:brine",
    "tm:bulletseed",
    "tm:captivate",
    "tm:chargebeam",
    "tm:confide",
    "tm:dive",
    "tm:doubleteam",
    "tm:endure",
    "tm:energyball",
    "tm:facade",
    "tm:fireblast",
    "tm:flamethrower",
    "tm:flashcannon",
    "tm:focusenergy",
    "tm:frustration",
    "tm:gigaimpact",
    "tm:gunkshot",
    "tm:helpinghand",
    "tm:hiddenpower",
    "tm:hydropump",
    "tm:hyperbeam",
    "tm:icebeam",
    "tm:icywind",
    "tm:incinerate",
    "tm:liquidation",
    "tm:mudshot",
    "tm:naturalgift",
    "tm:payback",
    "tm:protect",
    "tm:psychic",
    "tm:raindance",
    "tm:rest",
    "tm:return",
    "tm:rockblast",
    "tm:round",
    "tm:scald",
    "tm:screech",
    "tm:secretpower",
    "tm:seedbomb",
    "tm:sleeptalk",
    "tm:sludgebomb",
    "tm:sludgewave",
    "tm:smackdown",
    "tm:snore",
    "tm:substitute",
    "tm:sunnyday",
    "tm:surf",
    "tm:swagger",
    "tm:swift",
    "tm:thief",
    "tm:thunderwave",
    "tm:toxic",
    "tm:waterfall",
    "tm:waterpulse",
    "tm:whirlpool",
    "tutor:attract",
    "tutor:aurorabeam",
    "tutor:bind",
    "tutor:bounce",
    "tutor:bubblebeam",
    "tutor:constrict",
    "tutor:curse",
    "tutor:defensecurl",
    "tutor:dive",
    "tutor:doubleedge",
    "tutor:doubleteam",
    "tutor:endure",
    "tutor:focusenergy",
    "tutor:frustration",
    "tutor:gunkshot",
    "tutor:hiddenpower",
    "tutor:hyperbeam",
    "tutor:icebeam",
    "tutor:icywind",
    "tutor:mimic",
    "tutor:mudslap",
    "tutor:octazooka",
    "tutor:protect",
    "tutor:psybeam",
    "tutor:raindance",
    "tutor:rest",
    "tutor:return",
    "tutor:seedbomb",
    "tutor:seismictoss",
    "tutor:signalbeam",
    "tutor:skittersmack",
    "tutor:sleeptalk",
    "tutor:snore",
    "tutor:stringshot",
    "tutor:substitute",
    "tutor:surf",
    "tutor:swagger",
    "tutor:swift",
    "tutor:thief",
    "tutor:thunderwave",
    "tutor:toxic",
    "tutor:watergun",
    "tutor:waterpulse",
    "tutor:whirlpool"
  ],
  "labels": [
    "gen2"
  ],
  "pokedex": [
    "cobblemon.species.octillery.desc"
  ],
  "preEvolution": "remoraid",
  "evolutions": [],
  "baseScale": 1,
  "hitbox": {
    "width": 1,
    "height": 1,
    "fixed": false
  },
  "baseFriendship": 50,
  "evYield": {
    "hp": 0,
    "attack": 1,
    "defence": 0,
    "special_attack": 1,
    "special_defence": 0,
    "speed": 0
  },
  "height": 9,
  "weight": 285,
  "aspects": [],
  "cannotDynamax": false
}