{
  "implemented": true,
  "name": "Sneasel",
  "nationalPokedexNumber": 215,
  "primaryType": "dark",
  "secondaryType": "ice",
  "abilities": [
    "innerfocus",
    "keeneye",
    "h:pickpocket"
  ],
  "baseStats": {
    "hp": 55,
    "attack": 95,
    "defence": 55,
    "special_attack": 35,
    "special_defence": 75,
    "speed": 115
  },
  "catchRate": 60,
  "maleRatio": 0.5,
  "shoulderMountable": false,
  "forms": [
    {
      "name": "Hisui",
      "primaryType": "fighting",
      "secondaryType": "poison",
      "abilities": [
        "innerfocus",
        "keeneye",
        "h:pickpocket"
      ],
      "baseStats": {
        "hp": 55,
        "attack": 95,
        "defence": 55,
        "special_attack": 35,
        "special_defence": 75,
        "speed": 115
      },
      "catchRate": 60,
      "maleRatio": 0.5,
      "baseExperienceYield": 86,
      "baseFriendship": 35,
      "evYield": {
        "hp": 0,
        "attack": 0,
        "defence": 0,
        "special_attack": 0,
        "special_defence": 0,
        "speed": 1
      },
      "experienceGroup": "medium_slow",
      "eggCycles": 20,
      "eggGroups": [
        "field"
      ],
      "moves": [
        "1:leer",
        "1:rocksmash",
        "1:scratch",
        "6:taunt",
        "12:quickattack",
        "18:metalclaw",
        "24:poisonjab",
        "30:brickbreak",
        "36:honeclaws",
        "42:slash",
        "48:agility",
        "54:screech",
        "60:closecombat",
        "egg:counter",
        "egg:doublehit",
        "egg:fakeout",
        "egg:feint",
        "egg:nightslash",
        "egg:quickguard",
        "egg:switcheroo",
        "tm:acidspray",
        "tm:aerialace",
        "tm:agility",
        "tm:brickbreak",
        "tm:bulkup",
        "tm:calmmind",
        "tm:closecombat",
        "tm:dig",
        "tm:endure",
        "tm:facade",
        "tm:falseswipe",
        "tm:fling",
        "tm:focusblast",
        "tm:gigaimpact",
        "tm:grassknot",
        "tm:gunkshot",
        "tm:lowkick",
        "tm:lowsweep",
        "tm:metalclaw",
        "tm:nastyplot",
        "tm:poisonjab",
        "tm:poisontail",
        "tm:protect",
        "tm:raindance",
        "tm:rest",
        "tm:reversal",
        "tm:shadowball",
        "tm:shadowclaw",
        "tm:sleeptalk",
        "tm:sludgebomb",
        "tm:substitute",
        "tm:sunnyday",
        "tm:swift",
        "tm:swordsdance",
        "tm:takedown",
        "tm:taunt",
        "tm:terablast",
        "tm:thief",
        "tm:toxicspikes",
        "tm:trailblaze",
        "tm:venoshock",
        "tm:xscissor"
      ],
      "labels": [
        "gen8",
        "hisui_regional"
      ],
      "aspects": [
        "hisuian"
      ],
      "height": 9,
      "weight": 270,
      "evolutions": [
        {
          "id": "sneasel_sneasler",
          "variant": "level_up",
          "result": "sneasler",
          "consumeHeldItem": true,
          "learnableMoves": [],
          "requirements": [
            {
              "variant": "held_item",
              "itemCondition": "cobblemon:razor_claw"
            },
            {
              "variant": "time_range",
              "range": "day"
            }
          ]
        }
      ],
      "cannotDynamax": false,
      "battleOnly": false
    }
  ],
  "baseExperienceYield": 86,
  "experienceGroup": "medium_slow",
  "eggCycles": 20,
  "eggGroups": [
    "field"
  ],
  "moves": [
    "1:leer",
    "1:scratch",
    "6:taunt",
    "10:feintattack",
    "12:quickattack",
    "18:metalclaw",
    "24:icywind",
    "30:furyswipes",
    "36:honeclaws",
    "40:snatch",
    "42:beatup",
    "44:punishment",
    "47:iceshard",
    "48:agility",
    "54:screech",
    "60:slash",
    "egg:assist",
    "egg:avalanche",
    "egg:bite",
    "egg:counter",
    "egg:crushclaw",
    "egg:doublehit",
    "egg:fakeout",
    "egg:feint",
    "egg:foresight",
    "egg:icepunch",
    "egg:iceshard",
    "egg:iciclecrash",
    "egg:punishment",
    "egg:pursuit",
    "egg:reflect",
    "egg:spite",
    "egg:throatchop",
    "tm:aerialace",
    "tm:agility",
    "tm:attract",
    "tm:avalanche",
    "tm:beatup",
    "tm:blizzard",
    "tm:brickbreak",
    "tm:calmmind",
    "tm:captivate",
    "tm:confide",
    "tm:cut",
    "tm:darkpulse",
    "tm:dig",
    "tm:doubleteam",
    "tm:dreameater",
    "tm:embargo",
    "tm:endure",
    "tm:facade",
    "tm:faketears",
    "tm:falseswipe",
    "tm:fling",
    "tm:focuspunch",
    "tm:foulplay",
    "tm:frustration",
    "tm:gigaimpact",
    "tm:hail",
    "tm:helpinghand",
    "tm:hiddenpower",
    "tm:honeclaws",
    "tm:icebeam",
    "tm:icepunch",
    "tm:icywind",
    "tm:irontail",
    "tm:lowkick",
    "tm:lowsweep",
    "tm:megakick",
    "tm:megapunch",
    "tm:metalclaw",
    "tm:nastyplot",
    "tm:naturalgift",
    "tm:payback",
    "tm:poisonjab",
    "tm:poweruppunch",
    "tm:protect",
    "tm:psychocut",
    "tm:psychup",
    "tm:raindance",
    "tm:reflect",
    "tm:rest",
    "tm:retaliate",
    "tm:return",
    "tm:reversal",
    "tm:rocksmash",
    "tm:round",
    "tm:scaryface",
    "tm:screech",
    "tm:secretpower",
    "tm:shadowball",
    "tm:shadowclaw",
    "tm:sleeptalk",
    "tm:snarl",
    "tm:snatch",
    "tm:snore",
    "tm:snowscape",
    "tm:strength",
    "tm:substitute",
    "tm:sunnyday",
    "tm:surf",
    "tm:swagger",
    "tm:swift",
    "tm:swordsdance",
    "tm:takedown",
    "tm:taunt",
    "tm:terablast",
    "tm:thief",
    "tm:throatchop",
    "tm:torment",
    "tm:toxic",
    "tm:trailblaze",
    "tm:waterpulse",
    "tm:whirlpool",
    "tm:xscissor",
    "tutor:agility",
    "tutor:attract",
    "tutor:beatup",
    "tutor:bite",
    "tutor:blizzard",
    "tutor:counter",
    "tutor:curse",
    "tutor:cut",
    "tutor:darkpulse",
    "tutor:defensecurl",
    "tutor:detect",
    "tutor:dig",
    "tutor:doubleedge",
    "tutor:doubleteam",
    "tutor:dreameater",
    "tutor:dynamicpunch",
    "tutor:endure",
    "tutor:feintattack",
    "tutor:focuspunch",
    "tutor:foresight",
    "tutor:foulplay",
    "tutor:frustration",
    "tutor:furycutter",
    "tutor:furyswipes",
    "tutor:headbutt",
    "tutor:hiddenpower",
    "tutor:icepunch",
    "tutor:icywind",
    "tutor:irontail",
    "tutor:knockoff",
    "tutor:laserfocus",
    "tutor:lashout",
    "tutor:leer",
    "tutor:lowkick",
    "tutor:metalclaw",
    "tutor:mimic",
    "tutor:mudslap",
    "tutor:nightmare",
    "tutor:protect",
    "tutor:psychup",
    "tutor:quickattack",
    "tutor:raindance",
    "tutor:reflect",
    "tutor:rest",
    "tutor:return",
    "tutor:rocksmash",
    "tutor:scratch",
    "tutor:screech",
    "tutor:shadowball",
    "tutor:slash",
    "tutor:sleeptalk",
    "tutor:snatch",
    "tutor:snore",
    "tutor:spite",
    "tutor:strength",
    "tutor:substitute",
    "tutor:surf",
    "tutor:swagger",
    "tutor:swift",
    "tutor:swordsdance",
    "tutor:taunt",
    "tutor:thief",
    "tutor:throatchop",
    "tutor:toxic",
    "tutor:tripleaxel"
  ],
  "labels": [
    "gen2",
    "johto_regional"
  ],
  "pokedex": [
    "cobblemon.species.sneasel.desc"
  ],
  "evolutions": [
    {
      "id": "sneasel_weavile",
      "variant": "level_up",
      "result": "weavile",
      "consumeHeldItem": true,
      "learnableMoves": [],
      "requirements": [
        {
          "variant": "held_item",
          "itemCondition": "cobblemon:razor_claw"
        },
        {
          "variant": "time_range",
          "range": "night"
        }
      ]
    }
  ],
  "baseScale": 1,
  "hitbox": {
    "width": 0.6,
    "height": 1.1,
    "fixed": false
  },
  "baseFriendship": 35,
  "evYield": {
    "hp": 0,
    "attack": 0,
    "defence": 0,
    "special_attack": 0,
    "special_defence": 0,
    "speed": 1
  },
  "height": 9,
  "weight": 280,
  "aspects": [],
  "cannotDynamax": false
}