{
  "name": "Floette",
  "nationalPokedexNumber": 670,
  "primaryType": "fairy",
  "abilities": [
    "flowerveil",
    "h:symbiosis"
  ],
  "baseStats": {
    "hp": 54,
    "attack": 45,
    "defence": 47,
    "special_attack": 75,
    "special_defence": 98,
    "speed": 52
  },
  "catchRate": 120,
  "maleRatio": 0,
  "shoulderMountable": false,
  "forms": [
    {
      "name": "Eternal",
      "primaryType": "fairy",
      "abilities": [
        "flowerveil"
      ],
      "baseStats": {
        "hp": 74,
        "attack": 65,
        "defence": 67,
        "special_attack": 125,
        "special_defence": 128,
        "speed": 92
      },
      "catchRate": 120,
      "maleRatio": 0,
      "baseExperienceYield": 130,
      "baseFriendship": 70,
      "evYield": {
        "hp": 0,
        "attack": 0,
        "defence": 0,
        "special_attack": 0,
        "special_defence": 2,
        "speed": 0
      },
      "experienceGroup": "medium_fast",
      "eggCycles": 20,
      "eggGroups": [
        "undiscovered"
      ],
      "moves": [
        "1:tackle",
        "1:vinewhip",
        "6:fairywind",
        "10:luckychant",
        "15:razorleaf",
        "20:wish",
        "25:magicalleaf",
        "27:grassyterrain",
        "33:petalblizzard",
        "38:aromatherapy",
        "43:mistyterrain",
        "46:moonblast",
        "50:lightofruin",
        "51:petaldance",
        "58:solarbeam",
        "tm:attract",
        "tm:calmmind",
        "tm:confide",
        "tm:dazzlinggleam",
        "tm:doubleteam",
        "tm:echoedvoice",
        "tm:energyball",
        "tm:facade",
        "tm:flash",
        "tm:frustration",
        "tm:grassknot",
        "tm:hiddenpower",
        "tm:naturepower",
        "tm:protect",
        "tm:psychic",
        "tm:raindance",
        "tm:rest",
        "tm:return",
        "tm:round",
        "tm:safeguard",
        "tm:secretpower",
        "tm:sleeptalk",
        "tm:solarbeam",
        "tm:substitute",
        "tm:sunnyday",
        "tm:swagger",
        "tm:toxic",
        "tutor:afteryou",
        "tutor:allyswitch",
        "tutor:covet",
        "tutor:endeavor",
        "tutor:gigadrain",
        "tutor:healbell",
        "tutor:helpinghand",
        "tutor:magiccoat",
        "tutor:seedbomb",
        "tutor:snore",
        "tutor:synthesis",
        "tutor:worryseed"
      ],
      "labels": [
        "gen6"
      ],
      "aspects": [
        "eternal"
      ],
      "height": 2,
      "weight": 9,
      "evolutions": [],
      "cannotDynamax": false,
      "battleOnly": false
    }
  ],
  "baseExperienceYield": 130,
  "experienceGroup": "medium_fast",
  "eggCycles": 20,
  "eggGroups": [
    "fairy"
  ],
  "moves": [
    "1:fairywind",
    "1:tackle",
    "1:vinewhip",
    "10:luckychant",
    "10:safeguard",
    "15:razorleaf",
    "20:wish",
    "25:magicalleaf",
    "27:grassyterrain",
    "33:petalblizzard",
    "38:aromatherapy",
    "38:synthesis",
    "43:mistyterrain",
    "46:moonblast",
    "51:petaldance",
    "58:solarbeam",
    "tm:attract",
    "tm:batonpass",
    "tm:calmmind",
    "tm:charm",
    "tm:chillingwater",
    "tm:confide",
    "tm:dazzlinggleam",
    "tm:disarmingvoice",
    "tm:doubleteam",
    "tm:drainingkiss",
    "tm:echoedvoice",
    "tm:endure",
    "tm:energyball",
    "tm:facade",
    "tm:flash",
    "tm:frustration",
    "tm:gigadrain",
    "tm:grassknot",
    "tm:grassyterrain",
    "tm:helpinghand",
    "tm:hiddenpower",
    "tm:lightscreen",
    "tm:magicalleaf",
    "tm:metronome",
    "tm:mistyterrain",
    "tm:naturepower",
    "tm:pollenpuff",
    "tm:protect",
    "tm:psychic",
    "tm:raindance",
    "tm:rest",
    "tm:return",
    "tm:round",
    "tm:safeguard",
    "tm:secretpower",
    "tm:seedbomb",
    "tm:skillswap",
    "tm:sleeptalk",
    "tm:solarbeam",
    "tm:storedpower",
    "tm:substitute",
    "tm:sunnyday",
    "tm:swagger",
    "tm:swift",
    "tm:terablast",
    "tm:toxic",
    "tm:trailblaze",
    "tm:trick",
    "tutor:afteryou",
    "tutor:allyswitch",
    "tutor:covet",
    "tutor:endeavor",
    "tutor:gigadrain",
    "tutor:healbell",
    "tutor:helpinghand",
    "tutor:magiccoat",
    "tutor:seedbomb",
    "tutor:snore",
    "tutor:synthesis",
    "tutor:worryseed"
  ],
  "labels": [
    "gen6"
  ],
  "pokedex": [
    "cobblemon.species.floette.desc"
  ],
  "preEvolution": "flabebe",
  "evolutions": [
    {
      "id": "floette_florges",
      "variant": "item_interact",
      "result": "florges",
      "consumeHeldItem": false,
      "learnableMoves": [],
      "requirements": [],
      "requiredContext": "cobblemon:shiny_stone"
    }
  ],
  "baseScale": 1,
  "hitbox": {
    "width": 1,
    "height": 1,
    "fixed": false
  },
  "baseFriendship": 70,
  "evYield": {
    "hp": 0,
    "attack": 0,
    "defence": 0,
    "special_attack": 0,
    "special_defence": 2,
    "speed": 0
  },
  "height": 2,
  "weight": 9,
  "aspects": [],
  "cannotDynamax": false
}