{
  "feature": "cobblemon:mints",
  "placement": [
    {
      "type": "minecraft:rarity_filter",
      "chance": 14
    },
    {
      "type": "minecraft:in_square"
    },
    {
      "type": "minecraft:heightmap",
      "heightmap": "WORLD_SURFACE"
    },
    {
      "type": "minecraft:block_predicate_filter",
      "predicate": {
        "type": "cobblemon:altitude",
        "min": 100
      }
    }
  ]
}