{
  "name": "Cubchoo",
  "nationalPokedexNumber": 613,
  "primaryType": "ice",
  "abilities": [
    "snowcloak",
    "slushrush",
    "h:rattled"
  ],
  "baseStats": {
    "hp": 55,
    "attack": 70,
    "defence": 40,
    "special_attack": 60,
    "special_defence": 40,
    "speed": 40
  },
  "catchRate": 120,
  "maleRatio": 0.5,
  "shoulderMountable": false,
  "baseExperienceYield": 61,
  "experienceGroup": "medium_fast",
  "eggCycles": 20,
  "eggGroups": [
    "field"
  ],
  "moves": [
    "1:growl",
    "1:powdersnow",
    "3:endure",
    "6:furyswipes",
    "9:bide",
    "9:icywind",
    "12:playnice",
    "15:brine",
    "18:frostbreath",
    "21:slash",
    "24:flail",
    "27:charm",
    "30:hail",
    "30:snowscape",
    "33:thrash",
    "36:rest",
    "39:blizzard",
    "42:sheercold",
    "egg:assurance",
    "egg:avalanche",
    "egg:encore",
    "egg:focuspunch",
    "egg:icepunch",
    "egg:nightslash",
    "egg:playrough",
    "egg:sleeptalk",
    "egg:yawn",
    "tm:aerialace",
    "tm:assurance",
    "tm:attract",
    "tm:avalanche",
    "tm:blizzard",
    "tm:bodypress",
    "tm:bodyslam",
    "tm:brine",
    "tm:bulldoze",
    "tm:charm",
    "tm:chillingwater",
    "tm:confide",
    "tm:crunch",
    "tm:cut",
    "tm:dig",
    "tm:doubleteam",
    "tm:echoedvoice",
    "tm:encore",
    "tm:endure",
    "tm:facade",
    "tm:fling",
    "tm:frostbreath",
    "tm:frustration",
    "tm:grassknot",
    "tm:hail",
    "tm:heavyslam",
    "tm:hiddenpower",
    "tm:honeclaws",
    "tm:icebeam",
    "tm:icefang",
    "tm:icepunch",
    "tm:icywind",
    "tm:liquidation",
    "tm:lowkick",
    "tm:megakick",
    "tm:megapunch",
    "tm:metalclaw",
    "tm:mudshot",
    "tm:mudslap",
    "tm:playrough",
    "tm:poweruppunch",
    "tm:protect",
    "tm:raindance",
    "tm:rest",
    "tm:return",
    "tm:rockslide",
    "tm:rocksmash",
    "tm:rocktomb",
    "tm:round",
    "tm:secretpower",
    "tm:shadowclaw",
    "tm:sleeptalk",
    "tm:snarl",
    "tm:snore",
    "tm:snowscape",
    "tm:strength",
    "tm:substitute",
    "tm:superpower",
    "tm:surf",
    "tm:swagger",
    "tm:takedown",
    "tm:taunt",
    "tm:terablast",
    "tm:thief",
    "tm:toxic",
    "tm:trailblaze",
    "tm:waterpulse",
    "tm:xscissor",
    "tutor:bide",
    "tutor:covet",
    "tutor:focuspunch",
    "tutor:growl",
    "tutor:icepunch",
    "tutor:icywind",
    "tutor:lowkick",
    "tutor:powdersnow",
    "tutor:sleeptalk",
    "tutor:snore",
    "tutor:superpower",
    "tutor:waterpulse"
  ],
  "labels": [
    "gen5"
  ],
  "pokedex": [
    "cobblemon.species.cubchoo.desc"
  ],
  "evolutions": [
    {
      "id": "cubchoo_beartic",
      "variant": "level_up",
      "result": "beartic",
      "consumeHeldItem": false,
      "learnableMoves": [
        "iciclecrash"
      ],
      "requirements": [
        {
          "variant": "level",
          "minLevel": 37
        }
      ]
    }
  ],
  "baseScale": 1,
  "hitbox": {
    "width": 1,
    "height": 1,
    "fixed": false
  },
  "baseFriendship": 50,
  "evYield": {
    "hp": 0,
    "attack": 1,
    "defence": 0,
    "special_attack": 0,
    "special_defence": 0,
    "speed": 0
  },
  "height": 5,
  "weight": 85,
  "aspects": [],
  "cannotDynamax": false
}