{
  "name": "Gurdurr",
  "nationalPokedexNumber": 533,
  "primaryType": "fighting",
  "abilities": [
    "guts",
    "sheerforce",
    "h:ironfist"
  ],
  "baseStats": {
    "hp": 85,
    "attack": 105,
    "defence": 85,
    "special_attack": 40,
    "special_defence": 50,
    "speed": 40
  },
  "catchRate": 90,
  "maleRatio": 0.75,
  "shoulderMountable": false,
  "baseExperienceYield": 142,
  "experienceGroup": "medium_slow",
  "eggCycles": 20,
  "eggGroups": [
    "human_like"
  ],
  "moves": [
    "1:bide",
    "1:leer",
    "1:lowkick",
    "1:pound",
    "1:rockthrow",
    "12:focusenergy",
    "16:bulkup",
    "20:rockslide",
    "20:wakeupslap",
    "24:chipaway",
    "24:slam",
    "30:scaryface",
    "36:dynamicpunch",
    "42:hammerarm",
    "48:stoneedge",
    "54:superpower",
    "60:focuspunch",
    "tm:attract",
    "tm:brickbreak",
    "tm:brutalswing",
    "tm:bulkup",
    "tm:closecombat",
    "tm:confide",
    "tm:dig",
    "tm:doubleteam",
    "tm:drainpunch",
    "tm:endure",
    "tm:facade",
    "tm:firepunch",
    "tm:fling",
    "tm:focusblast",
    "tm:focusenergy",
    "tm:frustration",
    "tm:grassknot",
    "tm:helpinghand",
    "tm:hiddenpower",
    "tm:highhorsepower",
    "tm:icepunch",
    "tm:lowkick",
    "tm:lowsweep",
    "tm:megakick",
    "tm:megapunch",
    "tm:payback",
    "tm:poisonjab",
    "tm:poweruppunch",
    "tm:protect",
    "tm:raindance",
    "tm:rest",
    "tm:retaliate",
    "tm:return",
    "tm:revenge",
    "tm:reversal",
    "tm:rockslide",
    "tm:rocksmash",
    "tm:rocktomb",
    "tm:round",
    "tm:scaryface",
    "tm:secretpower",
    "tm:sleeptalk",
    "tm:smackdown",
    "tm:snore",
    "tm:stoneedge",
    "tm:strength",
    "tm:substitute",
    "tm:sunnyday",
    "tm:superpower",
    "tm:swagger",
    "tm:taunt",
    "tm:thunderpunch",
    "tm:toxic",
    "tm:workup",
    "tutor:block",
    "tutor:coaching",
    "tutor:drainpunch",
    "tutor:firepunch",
    "tutor:focuspunch",
    "tutor:helpinghand",
    "tutor:icepunch",
    "tutor:knockoff",
    "tutor:lowkick",
    "tutor:machpunch",
    "tutor:sleeptalk",
    "tutor:snore",
    "tutor:superpower",
    "tutor:thunderpunch"
  ],
  "labels": [
    "gen5"
  ],
  "pokedex": [
    "cobblemon.species.gurdurr.desc"
  ],
  "preEvolution": "timburr",
  "evolutions": [
    {
      "id": "gurdurr_conkeldurr",
      "variant": "trade",
      "result": "conkeldurr",
      "consumeHeldItem": false,
      "learnableMoves": [],
      "requirements": []
    }
  ],
  "baseScale": 1,
  "hitbox": {
    "width": 1,
    "height": 1,
    "fixed": false
  },
  "baseFriendship": 50,
  "evYield": {
    "hp": 0,
    "attack": 2,
    "defence": 0,
    "special_attack": 0,
    "special_defence": 0,
    "speed": 0
  },
  "height": 12,
  "weight": 400,
  "aspects": [],
  "cannotDynamax": false
}