{
  "name": "Terrakion",
  "nationalPokedexNumber": 639,
  "primaryType": "rock",
  "secondaryType": "fighting",
  "abilities": [
    "justified"
  ],
  "baseStats": {
    "hp": 91,
    "attack": 129,
    "defence": 90,
    "special_attack": 72,
    "special_defence": 90,
    "speed": 108
  },
  "catchRate": 3,
  "maleRatio": -1,
  "shoulderMountable": false,
  "baseExperienceYield": 290,
  "experienceGroup": "slow",
  "eggCycles": 80,
  "eggGroups": [
    "undiscovered"
  ],
  "moves": [
    "1:helpinghand",
    "1:leer",
    "1:quickattack",
    "1:workup",
    "7:smackdown",
    "14:quickguard",
    "21:doublekick",
    "28:retaliate",
    "35:rockslide",
    "42:takedown",
    "49:sacredsword",
    "56:swordsdance",
    "63:stoneedge",
    "70:closecombat",
    "tm:aerialace",
    "tm:airslash",
    "tm:brickbreak",
    "tm:bulldoze",
    "tm:calmmind",
    "tm:closecombat",
    "tm:confide",
    "tm:cut",
    "tm:doubleteam",
    "tm:earthpower",
    "tm:earthquake",
    "tm:endure",
    "tm:facade",
    "tm:falseswipe",
    "tm:focusblast",
    "tm:frustration",
    "tm:gigaimpact",
    "tm:helpinghand",
    "tm:hiddenpower",
    "tm:hyperbeam",
    "tm:ironhead",
    "tm:megahorn",
    "tm:poisonjab",
    "tm:protect",
    "tm:psychup",
    "tm:reflect",
    "tm:rest",
    "tm:retaliate",
    "tm:return",
    "tm:revenge",
    "tm:reversal",
    "tm:roar",
    "tm:rockblast",
    "tm:rockpolish",
    "tm:rockslide",
    "tm:rocksmash",
    "tm:rocktomb",
    "tm:round",
    "tm:safeguard",
    "tm:sandstorm",
    "tm:scaryface",
    "tm:secretpower",
    "tm:sleeptalk",
    "tm:smackdown",
    "tm:smartstrike",
    "tm:snore",
    "tm:stealthrock",
    "tm:stompingtantrum",
    "tm:stoneedge",
    "tm:strength",
    "tm:substitute",
    "tm:superpower",
    "tm:swagger",
    "tm:swift",
    "tm:swordsdance",
    "tm:taunt",
    "tm:toxic",
    "tm:workup",
    "tm:xscissor",
    "tm:zenheadbutt",
    "tutor:block",
    "tutor:closecombat",
    "tutor:coaching",
    "tutor:earthpower",
    "tutor:helpinghand",
    "tutor:ironhead",
    "tutor:laserfocus",
    "tutor:quickguard",
    "tutor:retaliate",
    "tutor:rockslide",
    "tutor:sacredsword",
    "tutor:sleeptalk",
    "tutor:snore",
    "tutor:stealthrock",
    "tutor:stompingtantrum",
    "tutor:stoneedge",
    "tutor:superpower",
    "tutor:swordsdance",
    "tutor:workup",
    "tutor:zenheadbutt"
  ],
  "labels": [
    "gen5",
    "legendary"
  ],
  "pokedex": [
    "cobblemon.species.terrakion.desc"
  ],
  "evolutions": [],
  "baseScale": 1,
  "hitbox": {
    "width": 1,
    "height": 1,
    "fixed": false
  },
  "baseFriendship": 35,
  "evYield": {
    "hp": 0,
    "attack": 3,
    "defence": 0,
    "special_attack": 0,
    "special_defence": 0,
    "speed": 0
  },
  "height": 19,
  "weight": 2600,
  "aspects": [],
  "cannotDynamax": false
}