{
  "name": "Finneon",
  "nationalPokedexNumber": 456,
  "primaryType": "water",
  "abilities": [
    "swiftswim",
    "stormdrain",
    "h:waterveil"
  ],
  "baseStats": {
    "hp": 49,
    "attack": 49,
    "defence": 56,
    "special_attack": 49,
    "special_defence": 61,
    "speed": 66
  },
  "catchRate": 190,
  "maleRatio": 0.5,
  "shoulderMountable": false,
  "baseExperienceYield": 66,
  "experienceGroup": "erratic",
  "eggCycles": 20,
  "eggGroups": [
    "water_2"
  ],
  "moves": [
    "1:pound",
    "6:watergun",
    "10:attract",
    "13:raindance",
    "17:gust",
    "22:waterpulse",
    "26:attract",
    "26:captivate",
    "29:safeguard",
    "33:aquaring",
    "38:whirlpool",
    "42:uturn",
    "45:bounce",
    "49:silverwind",
    "49:tailwind",
    "54:soak",
    "egg:agility",
    "egg:aquatail",
    "egg:aurorabeam",
    "egg:brine",
    "egg:charm",
    "egg:confuseray",
    "egg:flail",
    "egg:psybeam",
    "egg:signalbeam",
    "egg:splash",
    "egg:sweetkiss",
    "egg:tickle",
    "tm:acrobatics",
    "tm:agility",
    "tm:attract",
    "tm:blizzard",
    "tm:brine",
    "tm:captivate",
    "tm:charm",
    "tm:chillingwater",
    "tm:confide",
    "tm:confuseray",
    "tm:dazzlinggleam",
    "tm:defog",
    "tm:dive",
    "tm:doubleteam",
    "tm:endure",
    "tm:facade",
    "tm:flash",
    "tm:frustration",
    "tm:hail",
    "tm:helpinghand",
    "tm:hiddenpower",
    "tm:hydropump",
    "tm:icebeam",
    "tm:icywind",
    "tm:naturalgift",
    "tm:naturepower",
    "tm:payback",
    "tm:protect",
    "tm:psybeam",
    "tm:psychup",
    "tm:raindance",
    "tm:rest",
    "tm:return",
    "tm:round",
    "tm:safeguard",
    "tm:scald",
    "tm:secretpower",
    "tm:silverwind",
    "tm:sleeptalk",
    "tm:substitute",
    "tm:surf",
    "tm:swagger",
    "tm:swift",
    "tm:tailwind",
    "tm:takedown",
    "tm:terablast",
    "tm:thief",
    "tm:toxic",
    "tm:uturn",
    "tm:waterfall",
    "tm:waterpulse",
    "tm:whirlpool",
    "tutor:aircutter",
    "tutor:aquatail",
    "tutor:attract",
    "tutor:bounce",
    "tutor:defog",
    "tutor:dive",
    "tutor:icywind",
    "tutor:ominouswind",
    "tutor:signalbeam",
    "tutor:sleeptalk",
    "tutor:snore",
    "tutor:sweetkiss",
    "tutor:swift",
    "tutor:tailwind",
    "tutor:twister",
    "tutor:waterpulse"
  ],
  "labels": [
    "gen4"
  ],
  "pokedex": [
    "cobblemon.species.finneon.desc"
  ],
  "evolutions": [
    {
      "id": "finneon_lumineon",
      "variant": "level_up",
      "result": "lumineon",
      "consumeHeldItem": false,
      "learnableMoves": [],
      "requirements": [
        {
          "variant": "level",
          "minLevel": 31
        }
      ]
    }
  ],
  "baseScale": 1,
  "hitbox": {
    "width": 1,
    "height": 1,
    "fixed": false
  },
  "baseFriendship": 70,
  "evYield": {
    "hp": 0,
    "attack": 0,
    "defence": 0,
    "special_attack": 0,
    "special_defence": 0,
    "speed": 1
  },
  "height": 4,
  "weight": 70,
  "aspects": [],
  "cannotDynamax": false
}