{
  "implemented": true,
  "name": "Bounsweet",
  "nationalPokedexNumber": 761,
  "primaryType": "grass",
  "abilities": [
    "leafguard",
    "oblivious",
    "h:sweetveil"
  ],
  "baseStats": {
    "hp": 42,
    "attack": 30,
    "defence": 38,
    "special_attack": 30,
    "special_defence": 38,
    "speed": 32
  },
  "catchRate": 235,
  "maleRatio": 0,
  "shoulderMountable": false,
  "baseExperienceYield": 42,
  "experienceGroup": "medium_slow",
  "eggCycles": 20,
  "eggGroups": [
    "grass"
  ],
  "moves": [
    "1:splash",
    "4:playnice",
    "8:rapidspin",
    "12:razorleaf",
    "16:sweetscent",
    "20:magicalleaf",
    "24:flail",
    "28:teeterdance",
    "32:aromaticmist",
    "36:aromatherapy",
    "egg:acupressure",
    "egg:charm",
    "egg:endeavor",
    "egg:feint",
    "egg:grasswhistle",
    "egg:playrough",
    "egg:synthesis",
    "tm:attract",
    "tm:bounce",
    "tm:bulletseed",
    "tm:charm",
    "tm:confide",
    "tm:dazzlinggleam",
    "tm:doubleteam",
    "tm:drainingkiss",
    "tm:endure",
    "tm:energyball",
    "tm:facade",
    "tm:frustration",
    "tm:gigadrain",
    "tm:grassknot",
    "tm:grassyterrain",
    "tm:helpinghand",
    "tm:hiddenpower",
    "tm:leafstorm",
    "tm:lightscreen",
    "tm:magicalleaf",
    "tm:naturepower",
    "tm:playrough",
    "tm:protect",
    "tm:reflect",
    "tm:rest",
    "tm:return",
    "tm:round",
    "tm:safeguard",
    "tm:seedbomb",
    "tm:sleeptalk",
    "tm:snore",
    "tm:solarbeam",
    "tm:substitute",
    "tm:sunnyday",
    "tm:swagger",
    "tm:swift",
    "tm:takedown",
    "tm:terablast",
    "tm:toxic",
    "tm:trailblaze",
    "tm:zenheadbutt",
    "tutor:bounce",
    "tutor:covet",
    "tutor:endeavor",
    "tutor:gigadrain",
    "tutor:grassyglide",
    "tutor:helpinghand",
    "tutor:seedbomb",
    "tutor:snore",
    "tutor:synthesis",
    "tutor:worryseed",
    "tutor:zenheadbutt"
  ],
  "labels": [
    "gen7"
  ],
  "pokedex": [
    "cobblemon.species.bounsweet.desc"
  ],
  "evolutions": [
    {
      "id": "bounsweet_steenee",
      "variant": "level_up",
      "result": "steenee",
      "consumeHeldItem": false,
      "learnableMoves": [],
      "requirements": [
        {
          "variant": "level",
          "minLevel": 18
        }
      ]
    }
  ],
  "baseScale": 0.8,
  "hitbox": {
    "width": 0.6,
    "height": 0.6,
    "fixed": false
  },
  "baseFriendship": 50,
  "evYield": {
    "hp": 1,
    "attack": 0,
    "defence": 0,
    "special_attack": 0,
    "special_defence": 0,
    "speed": 0
  },
  "height": 3,
  "weight": 32,
  "aspects": [],
  "cannotDynamax": false
}