{
  "name": "Sandaconda",
  "nationalPokedexNumber": 844,
  "primaryType": "ground",
  "abilities": [
    "sandspit",
    "shedskin",
    "h:sandveil"
  ],
  "baseStats": {
    "hp": 72,
    "attack": 107,
    "defence": 125,
    "special_attack": 65,
    "special_defence": 70,
    "speed": 71
  },
  "catchRate": 120,
  "maleRatio": 0.5,
  "shoulderMountable": false,
  "forms": [
    {
      "name": "Gmax",
      "primaryType": "ground",
      "abilities": [
        "sandspit",
        "shedskin",
        "h:sandveil"
      ],
      "baseStats": {
        "hp": 72,
        "attack": 107,
        "defence": 125,
        "special_attack": 65,
        "special_defence": 70,
        "speed": 71
      },
      "catchRate": 120,
      "maleRatio": 0.5,
      "baseExperienceYield": 179,
      "baseFriendship": 50,
      "evYield": {
        "hp": 0,
        "attack": 0,
        "defence": 2,
        "special_attack": 0,
        "special_defence": 0,
        "speed": 0
      },
      "experienceGroup": "medium_fast",
      "eggCycles": 20,
      "eggGroups": [
        "field",
        "dragon"
      ],
      "labels": [
        "gen8",
        "gmax"
      ],
      "aspects": [
        "gmax"
      ],
      "height": 220,
      "weight": 0,
      "evolutions": [],
      "cannotDynamax": false,
      "battleOnly": false
    }
  ],
  "baseExperienceYield": 179,
  "experienceGroup": "medium_fast",
  "eggCycles": 20,
  "eggGroups": [
    "field",
    "dragon"
  ],
  "moves": [
    "1:brutalswing",
    "1:minimize",
    "1:sandattack",
    "1:skullbash",
    "1:wrap",
    "15:bulldoze",
    "20:headbutt",
    "25:glare",
    "30:dig",
    "35:sandstorm",
    "42:slam",
    "49:coil",
    "51:sandtomb",
    "tm:attract",
    "tm:bodypress",
    "tm:bodyslam",
    "tm:brutalswing",
    "tm:bulldoze",
    "tm:dig",
    "tm:drillrun",
    "tm:earthpower",
    "tm:earthquake",
    "tm:endure",
    "tm:facade",
    "tm:firefang",
    "tm:gigaimpact",
    "tm:highhorsepower",
    "tm:hurricane",
    "tm:hyperbeam",
    "tm:irondefense",
    "tm:ironhead",
    "tm:mudshot",
    "tm:mudslap",
    "tm:outrage",
    "tm:poisontail",
    "tm:protect",
    "tm:rest",
    "tm:rockblast",
    "tm:rockslide",
    "tm:rocktomb",
    "tm:round",
    "tm:sandstorm",
    "tm:sandtomb",
    "tm:scaryface",
    "tm:screech",
    "tm:sleeptalk",
    "tm:snore",
    "tm:stealthrock",
    "tm:stoneedge",
    "tm:substitute",
    "tm:takedown",
    "tm:terablast",
    "tm:thunderfang",
    "tm:zenheadbutt",
    "tutor:scaleshot",
    "tutor:scorchingsands",
    "tutor:skittersmack"
  ],
  "labels": [
    "gen8"
  ],
  "pokedex": [
    "cobblemon.species.sandaconda.desc"
  ],
  "preEvolution": "silicobra",
  "evolutions": [],
  "baseScale": 1,
  "hitbox": {
    "width": 1,
    "height": 1,
    "fixed": false
  },
  "baseFriendship": 50,
  "evYield": {
    "hp": 0,
    "attack": 0,
    "defence": 2,
    "special_attack": 0,
    "special_defence": 0,
    "speed": 0
  },
  "height": 38,
  "weight": 655,
  "aspects": [],
  "cannotDynamax": false
}