{
  "implemented": true,
  "name": "Persian",
  "nationalPokedexNumber": 53,
  "primaryType": "normal",
  "abilities": [
    "limber",
    "technician",
    "h:unnerve"
  ],
  "baseStats": {
    "hp": 65,
    "attack": 70,
    "defence": 60,
    "special_attack": 65,
    "special_defence": 65,
    "speed": 115
  },
  "behaviour": {
    "resting": {
      "canSleep": true,
      "willSleepOnBed": false,
      "depth": "normal",
      "light": "0-4"
    }
  },
  "catchRate": 90,
  "maleRatio": 0.5,
  "shoulderMountable": false,
  "forms": [
    {
      "name": "Alola",
      "primaryType": "dark",
      "abilities": [
        "furcoat",
        "technician",
        "h:rattled"
      ],
      "baseStats": {
        "hp": 65,
        "attack": 60,
        "defence": 60,
        "special_attack": 75,
        "special_defence": 65,
        "speed": 115
      },
      "catchRate": 90,
      "maleRatio": 0.5,
      "baseExperienceYield": 154,
      "baseFriendship": 50,
      "evYield": {
        "hp": 0,
        "attack": 0,
        "defence": 0,
        "special_attack": 0,
        "special_defence": 0,
        "speed": 2
      },
      "experienceGroup": "medium_fast",
      "eggCycles": 20,
      "eggGroups": [
        "field"
      ],
      "moves": [
        "1:fakeout",
        "1:feint",
        "1:growl",
        "1:quash",
        "1:scratch",
        "1:swift",
        "1:switcheroo",
        "12:payday",
        "16:bite",
        "20:taunt",
        "22:feintattack",
        "24:assurance",
        "31:furyswipes",
        "32:powergem",
        "36:screech",
        "37:slash",
        "42:nightslash",
        "48:nastyplot",
        "54:playrough",
        "56:captivate",
        "69:darkpulse",
        "tm:aerialace",
        "tm:agility",
        "tm:amnesia",
        "tm:assurance",
        "tm:attract",
        "tm:beatup",
        "tm:bodyslam",
        "tm:charm",
        "tm:chillingwater",
        "tm:confide",
        "tm:confuseray",
        "tm:darkpulse",
        "tm:dig",
        "tm:doubleteam",
        "tm:dreameater",
        "tm:echoedvoice",
        "tm:embargo",
        "tm:endure",
        "tm:facade",
        "tm:faketears",
        "tm:foulplay",
        "tm:frustration",
        "tm:gigaimpact",
        "tm:gunkshot",
        "tm:helpinghand",
        "tm:hiddenpower",
        "tm:hyperbeam",
        "tm:hypervoice",
        "tm:icywind",
        "tm:irontail",
        "tm:metalclaw",
        "tm:nastyplot",
        "tm:payback",
        "tm:payday",
        "tm:playrough",
        "tm:powergem",
        "tm:protect",
        "tm:psychup",
        "tm:quash",
        "tm:raindance",
        "tm:rest",
        "tm:retaliate",
        "tm:return",
        "tm:roar",
        "tm:round",
        "tm:screech",
        "tm:seedbomb",
        "tm:shadowball",
        "tm:shadowclaw",
        "tm:sleeptalk",
        "tm:snarl",
        "tm:snore",
        "tm:substitute",
        "tm:sunnyday",
        "tm:swagger",
        "tm:swift",
        "tm:takedown",
        "tm:taunt",
        "tm:terablast",
        "tm:thief",
        "tm:throatchop",
        "tm:thunder",
        "tm:thunderbolt",
        "tm:thunderwave",
        "tm:torment",
        "tm:toxic",
        "tm:trailblaze",
        "tm:uproar",
        "tm:uturn",
        "tm:workup",
        "tutor:amnesia",
        "tutor:bite",
        "tutor:burningjealousy",
        "tutor:covet",
        "tutor:darkpulse",
        "tutor:dreameater",
        "tutor:facade",
        "tutor:fakeout",
        "tutor:feint",
        "tutor:foulplay",
        "tutor:furyswipes",
        "tutor:growl",
        "tutor:gunkshot",
        "tutor:headbutt",
        "tutor:hyperbeam",
        "tutor:hypervoice",
        "tutor:hypnosis",
        "tutor:icywind",
        "tutor:irontail",
        "tutor:knockoff",
        "tutor:lashout",
        "tutor:lastresort",
        "tutor:nastyplot",
        "tutor:payday",
        "tutor:playrough",
        "tutor:protect",
        "tutor:rest",
        "tutor:scratch",
        "tutor:screech",
        "tutor:seedbomb",
        "tutor:shadowball",
        "tutor:shockwave",
        "tutor:skittersmack",
        "tutor:slash",
        "tutor:snatch",
        "tutor:snore",
        "tutor:spite",
        "tutor:substitute",
        "tutor:swift",
        "tutor:taunt",
        "tutor:throatchop",
        "tutor:thunder",
        "tutor:thunderbolt",
        "tutor:toxic",
        "tutor:uproar",
        "tutor:uturn",
        "tutor:waterpulse"
      ],
      "labels": [
        "gen7",
        "alola_regional"
      ],
      "aspects": [
        "alolan"
      ],
      "height": 11,
      "weight": 330,
      "preEvolution": "meowth form=alola",
      "evolutions": [],
      "cannotDynamax": false,
      "battleOnly": false
    }
  ],
  "baseExperienceYield": 154,
  "experienceGroup": "medium_fast",
  "eggCycles": 20,
  "eggGroups": [
    "field"
  ],
  "drops": {
    "amount": "2",
    "entries": [
      {
        "item": "minecraft:raw_gold",
        "percentage": 20
      },
      {
        "item": "cobblemon:quick_claw",
        "percentage": 5
      }
    ]
  },
  "moves": [
    "1:fakeout",
    "1:feint",
    "1:growl",
    "1:scratch",
    "1:swift",
    "1:switcheroo",
    "12:payday",
    "16:bite",
    "20:taunt",
    "22:feintattack",
    "24:assurance",
    "31:furyswipes",
    "32:powergem",
    "36:screech",
    "42:slash",
    "48:nastyplot",
    "54:playrough",
    "56:captivate",
    "61:nightslash",
    "61:swagger",
    "tm:aerialace",
    "tm:agility",
    "tm:amnesia",
    "tm:assurance",
    "tm:attract",
    "tm:bodyslam",
    "tm:captivate",
    "tm:charm",
    "tm:chillingwater",
    "tm:confide",
    "tm:cut",
    "tm:darkpulse",
    "tm:dig",
    "tm:doubleteam",
    "tm:dreameater",
    "tm:echoedvoice",
    "tm:embargo",
    "tm:endure",
    "tm:facade",
    "tm:faketears",
    "tm:falseswipe",
    "tm:flash",
    "tm:foulplay",
    "tm:frustration",
    "tm:gigaimpact",
    "tm:gunkshot",
    "tm:helpinghand",
    "tm:hiddenpower",
    "tm:honeclaws",
    "tm:hyperbeam",
    "tm:hypervoice",
    "tm:icywind",
    "tm:irontail",
    "tm:metalclaw",
    "tm:nastyplot",
    "tm:naturalgift",
    "tm:payback",
    "tm:payday",
    "tm:playrough",
    "tm:powergem",
    "tm:protect",
    "tm:psychup",
    "tm:raindance",
    "tm:rest",
    "tm:retaliate",
    "tm:return",
    "tm:roar",
    "tm:round",
    "tm:screech",
    "tm:secretpower",
    "tm:seedbomb",
    "tm:shadowball",
    "tm:shadowclaw",
    "tm:shockwave",
    "tm:sleeptalk",
    "tm:snarl",
    "tm:snatch",
    "tm:snore",
    "tm:substitute",
    "tm:sunnyday",
    "tm:swagger",
    "tm:swift",
    "tm:takedown",
    "tm:taunt",
    "tm:terablast",
    "tm:thief",
    "tm:throatchop",
    "tm:thunder",
    "tm:thunderbolt",
    "tm:thunderwave",
    "tm:torment",
    "tm:toxic",
    "tm:trailblaze",
    "tm:uproar",
    "tm:uturn",
    "tm:waterpulse",
    "tm:workup",
    "tutor:amnesia",
    "tutor:attract",
    "tutor:bide",
    "tutor:bite",
    "tutor:bodyslam",
    "tutor:bubblebeam",
    "tutor:covet",
    "tutor:curse",
    "tutor:darkpulse",
    "tutor:defensecurl",
    "tutor:detect",
    "tutor:dig",
    "tutor:doubleedge",
    "tutor:doubleteam",
    "tutor:dreameater",
    "tutor:endure",
    "tutor:facade",
    "tutor:fakeout",
    "tutor:feint",
    "tutor:feintattack",
    "tutor:foulplay",
    "tutor:frustration",
    "tutor:furyswipes",
    "tutor:growl",
    "tutor:gunkshot",
    "tutor:headbutt",
    "tutor:hiddenpower",
    "tutor:hyperbeam",
    "tutor:hypervoice",
    "tutor:hypnosis",
    "tutor:icywind",
    "tutor:irontail",
    "tutor:knockoff",
    "tutor:lashout",
    "tutor:lastresort",
    "tutor:mimic",
    "tutor:mudslap",
    "tutor:nastyplot",
    "tutor:nightmare",
    "tutor:payday",
    "tutor:playrough",
    "tutor:protect",
    "tutor:psychup",
    "tutor:rage",
    "tutor:rest",
    "tutor:return",
    "tutor:roar",
    "tutor:scratch",
    "tutor:screech",
    "tutor:seedbomb",
    "tutor:shadowball",
    "tutor:shockwave",
    "tutor:skittersmack",
    "tutor:skullbash",
    "tutor:slash",
    "tutor:sleeptalk",
    "tutor:snatch",
    "tutor:snore",
    "tutor:spite",
    "tutor:substitute",
    "tutor:sunnyday",
    "tutor:swagger",
    "tutor:swift",
    "tutor:takedown",
    "tutor:taunt",
    "tutor:thief",
    "tutor:throatchop",
    "tutor:thunder",
    "tutor:thunderbolt",
    "tutor:toxic",
    "tutor:uproar",
    "tutor:uturn",
    "tutor:watergun",
    "tutor:waterpulse",
    "tutor:zapcannon"
  ],
  "labels": [
    "gen1",
    "kanto_regional"
  ],
  "pokedex": [
    "cobblemon.species.persian.desc"
  ],
  "preEvolution": "meowth",
  "evolutions": [],
  "baseScale": 0.8,
  "hitbox": {
    "width": 1,
    "height": 1.2,
    "fixed": false
  },
  "baseFriendship": 50,
  "evYield": {
    "hp": 0,
    "attack": 0,
    "defence": 0,
    "special_attack": 0,
    "special_defence": 0,
    "speed": 2
  },
  "height": 10,
  "weight": 320,
  "aspects": [],
  "cannotDynamax": false
}