{
  "name": "Breloom",
  "nationalPokedexNumber": 286,
  "primaryType": "grass",
  "secondaryType": "fighting",
  "abilities": [
    "effectspore",
    "poisonheal",
    "h:technician"
  ],
  "baseStats": {
    "hp": 60,
    "attack": 130,
    "defence": 80,
    "special_attack": 60,
    "special_defence": 60,
    "speed": 70
  },
  "catchRate": 90,
  "maleRatio": 0.5,
  "shoulderMountable": false,
  "baseExperienceYield": 161,
  "experienceGroup": "fluctuating",
  "eggCycles": 15,
  "eggGroups": [
    "fairy",
    "grass"
  ],
  "moves": [
    "1:absorb",
    "1:growth",
    "1:leechseed",
    "1:machpunch",
    "1:poisonpowder",
    "1:stunspore",
    "1:tackle",
    "1:toxic",
    "12:megadrain",
    "15:headbutt",
    "19:feint",
    "22:counter",
    "28:forcepalm",
    "33:mindreader",
    "33:worryseed",
    "39:brickbreak",
    "39:skyuppercut",
    "44:seedbomb",
    "50:dynamicpunch",
    "55:focuspunch",
    "tm:aerialace",
    "tm:attract",
    "tm:bodyslam",
    "tm:brickbreak",
    "tm:bulkup",
    "tm:bulldoze",
    "tm:bulletseed",
    "tm:captivate",
    "tm:charm",
    "tm:closecombat",
    "tm:confide",
    "tm:cut",
    "tm:dig",
    "tm:doubleteam",
    "tm:drainpunch",
    "tm:endure",
    "tm:energyball",
    "tm:facade",
    "tm:faketears",
    "tm:falseswipe",
    "tm:flash",
    "tm:fling",
    "tm:focusblast",
    "tm:focuspunch",
    "tm:frustration",
    "tm:gigadrain",
    "tm:gigaimpact",
    "tm:grassknot",
    "tm:grassyterrain",
    "tm:gunkshot",
    "tm:helpinghand",
    "tm:hiddenpower",
    "tm:hyperbeam",
    "tm:irontail",
    "tm:leafstorm",
    "tm:lowkick",
    "tm:lowsweep",
    "tm:magicalleaf",
    "tm:mudshot",
    "tm:mudslap",
    "tm:naturalgift",
    "tm:poisonjab",
    "tm:pounce",
    "tm:poweruppunch",
    "tm:protect",
    "tm:raindance",
    "tm:rest",
    "tm:retaliate",
    "tm:return",
    "tm:reversal",
    "tm:rockslide",
    "tm:rocksmash",
    "tm:rocktomb",
    "tm:round",
    "tm:safeguard",
    "tm:secretpower",
    "tm:seedbomb",
    "tm:sleeptalk",
    "tm:sludgebomb",
    "tm:snatch",
    "tm:solarbeam",
    "tm:stoneedge",
    "tm:strength",
    "tm:substitute",
    "tm:sunnyday",
    "tm:swagger",
    "tm:swift",
    "tm:swordsdance",
    "tm:takedown",
    "tm:terablast",
    "tm:thunderpunch",
    "tm:toxic",
    "tm:venoshock",
    "tm:workup",
    "tm:zenheadbutt",
    "tutor:bodyslam",
    "tutor:counter",
    "tutor:doubleedge",
    "tutor:drainpunch",
    "tutor:dynamicpunch",
    "tutor:endure",
    "tutor:focuspunch",
    "tutor:furycutter",
    "tutor:gigadrain",
    "tutor:headbutt",
    "tutor:helpinghand",
    "tutor:irontail",
    "tutor:laserfocus",
    "tutor:megakick",
    "tutor:megapunch",
    "tutor:mimic",
    "tutor:mudslap",
    "tutor:seedbomb",
    "tutor:seismictoss",
    "tutor:sleeptalk",
    "tutor:snatch",
    "tutor:snore",
    "tutor:substitute",
    "tutor:superpower",
    "tutor:swagger",
    "tutor:swordsdance",
    "tutor:synthesis",
    "tutor:thunderpunch",
    "tutor:vacuumwave",
    "tutor:worryseed"
  ],
  "labels": [
    "gen3"
  ],
  "pokedex": [
    "cobblemon.species.breloom.desc"
  ],
  "preEvolution": "shroomish",
  "evolutions": [],
  "baseScale": 1,
  "hitbox": {
    "width": 1,
    "height": 1,
    "fixed": false
  },
  "baseFriendship": 70,
  "evYield": {
    "hp": 0,
    "attack": 2,
    "defence": 0,
    "special_attack": 0,
    "special_defence": 0,
    "speed": 0
  },
  "height": 12,
  "weight": 392,
  "aspects": [],
  "cannotDynamax": false
}