{
  "name": "Relicanth",
  "nationalPokedexNumber": 369,
  "primaryType": "water",
  "secondaryType": "rock",
  "abilities": [
    "swiftswim",
    "rockhead",
    "h:sturdy"
  ],
  "baseStats": {
    "hp": 100,
    "attack": 90,
    "defence": 130,
    "special_attack": 45,
    "special_defence": 65,
    "speed": 55
  },
  "catchRate": 25,
  "maleRatio": 0.875,
  "shoulderMountable": false,
  "baseExperienceYield": 170,
  "experienceGroup": "slow",
  "eggCycles": 40,
  "eggGroups": [
    "water_1",
    "water_2"
  ],
  "moves": [
    "1:harden",
    "1:mudsport",
    "1:tackle",
    "5:watergun",
    "10:ancientpower",
    "15:rocktomb",
    "15:yawn",
    "20:dive",
    "25:takedown",
    "30:aquatail",
    "35:rest",
    "40:flail",
    "45:hydropump",
    "50:doubleedge",
    "55:headsmash",
    "egg:amnesia",
    "egg:aquatail",
    "egg:brine",
    "egg:magnitude",
    "egg:muddywater",
    "egg:mudshot",
    "egg:mudslap",
    "egg:rockslide",
    "egg:skullbash",
    "egg:sleeptalk",
    "egg:snore",
    "egg:watersport",
    "egg:zenheadbutt",
    "tm:amnesia",
    "tm:attract",
    "tm:blizzard",
    "tm:bodypress",
    "tm:bodyslam",
    "tm:bounce",
    "tm:brine",
    "tm:bulldoze",
    "tm:calmmind",
    "tm:captivate",
    "tm:confide",
    "tm:dive",
    "tm:doubleteam",
    "tm:earthpower",
    "tm:earthquake",
    "tm:endure",
    "tm:facade",
    "tm:frustration",
    "tm:gigaimpact",
    "tm:hail",
    "tm:hiddenpower",
    "tm:hydropump",
    "tm:hyperbeam",
    "tm:icebeam",
    "tm:icywind",
    "tm:irondefense",
    "tm:liquidation",
    "tm:muddywater",
    "tm:mudshot",
    "tm:naturalgift",
    "tm:protect",
    "tm:psychup",
    "tm:raindance",
    "tm:rest",
    "tm:return",
    "tm:rockblast",
    "tm:rockpolish",
    "tm:rockslide",
    "tm:rocksmash",
    "tm:rocktomb",
    "tm:round",
    "tm:safeguard",
    "tm:sandstorm",
    "tm:scald",
    "tm:secretpower",
    "tm:sleeptalk",
    "tm:smackdown",
    "tm:snore",
    "tm:stealthrock",
    "tm:stompingtantrum",
    "tm:stoneedge",
    "tm:substitute",
    "tm:surf",
    "tm:swagger",
    "tm:toxic",
    "tm:waterfall",
    "tm:waterpulse",
    "tm:whirlpool",
    "tm:zenheadbutt",
    "tutor:ancientpower",
    "tutor:aquatail",
    "tutor:bodyslam",
    "tutor:bounce",
    "tutor:dive",
    "tutor:doubleedge",
    "tutor:earthpower",
    "tutor:endure",
    "tutor:headbutt",
    "tutor:icywind",
    "tutor:meteorbeam",
    "tutor:mimic",
    "tutor:mudslap",
    "tutor:psychup",
    "tutor:rockslide",
    "tutor:scaleshot",
    "tutor:sleeptalk",
    "tutor:snore",
    "tutor:stealthrock",
    "tutor:stompingtantrum",
    "tutor:substitute",
    "tutor:swagger",
    "tutor:watergun",
    "tutor:waterpulse",
    "tutor:zenheadbutt"
  ],
  "labels": [
    "gen3"
  ],
  "pokedex": [
    "cobblemon.species.relicanth.desc"
  ],
  "evolutions": [],
  "baseScale": 1,
  "hitbox": {
    "width": 1,
    "height": 1,
    "fixed": false
  },
  "baseFriendship": 50,
  "evYield": {
    "hp": 1,
    "attack": 0,
    "defence": 1,
    "special_attack": 0,
    "special_defence": 0,
    "speed": 0
  },
  "height": 10,
  "weight": 234,
  "aspects": [],
  "cannotDynamax": false
}