{
  "implemented": true,
  "name": "Wailord",
  "nationalPokedexNumber": 321,
  "primaryType": "water",
  "abilities": [
    "waterveil",
    "oblivious",
    "h:pressure"
  ],
  "baseStats": {
    "hp": 170,
    "attack": 90,
    "defence": 45,
    "special_attack": 90,
    "special_defence": 45,
    "speed": 60
  },
  "behaviour": {
    "moving": {
      "canLook": false,
      "walk": {
        "avoidsLand": true
      },
      "swim": {
        "swimSpeed": 0.2,
        "canSwimInWater": true,
        "canBreatheUnderwater": true
      }
    }
  },
  "catchRate": 60,
  "maleRatio": 0.5,
  "shoulderMountable": false,
  "baseExperienceYield": 175,
  "experienceGroup": "fluctuating",
  "eggCycles": 40,
  "eggGroups": [
    "field",
    "water_2"
  ],
  "drops": {
    "amount": "1",
    "entries": [
      {
        "item": "minecraft:bone_block",
        "quantityRange": "1-2",
        "percentage": 66
      }
    ]
  },
  "moves": [
    "1:astonish",
    "1:growl",
    "1:nobleroar",
    "1:rollout",
    "1:soak",
    "1:splash",
    "1:watergun",
    "15:mist",
    "18:waterpulse",
    "21:heavyslam",
    "24:brine",
    "27:whirlpool",
    "30:dive",
    "33:bounce",
    "36:bodyslam",
    "39:rest",
    "44:amnesia",
    "49:hydropump",
    "54:waterspout",
    "tm:amnesia",
    "tm:attract",
    "tm:avalanche",
    "tm:blizzard",
    "tm:bodypress",
    "tm:bodyslam",
    "tm:bounce",
    "tm:brine",
    "tm:bulldoze",
    "tm:captivate",
    "tm:confide",
    "tm:dive",
    "tm:doubleteam",
    "tm:earthquake",
    "tm:echoedvoice",
    "tm:endure",
    "tm:facade",
    "tm:frustration",
    "tm:gigaimpact",
    "tm:hail",
    "tm:heavyslam",
    "tm:hiddenpower",
    "tm:hydropump",
    "tm:hyperbeam",
    "tm:hypervoice",
    "tm:icebeam",
    "tm:icywind",
    "tm:ironhead",
    "tm:liquidation",
    "tm:naturalgift",
    "tm:protect",
    "tm:raindance",
    "tm:rest",
    "tm:return",
    "tm:roar",
    "tm:rocksmash",
    "tm:rocktomb",
    "tm:round",
    "tm:scald",
    "tm:secretpower",
    "tm:selfdestruct",
    "tm:sleeptalk",
    "tm:snore",
    "tm:strength",
    "tm:substitute",
    "tm:surf",
    "tm:swagger",
    "tm:toxic",
    "tm:waterfall",
    "tm:waterpulse",
    "tm:weatherball",
    "tm:whirlpool",
    "tm:zenheadbutt",
    "tutor:amnesia",
    "tutor:block",
    "tutor:bodyslam",
    "tutor:bounce",
    "tutor:defensecurl",
    "tutor:dive",
    "tutor:doubleedge",
    "tutor:endure",
    "tutor:headbutt",
    "tutor:hydropump",
    "tutor:hypervoice",
    "tutor:icywind",
    "tutor:ironhead",
    "tutor:liquidation",
    "tutor:mimic",
    "tutor:mist",
    "tutor:rest",
    "tutor:rollout",
    "tutor:selfdestruct",
    "tutor:sleeptalk",
    "tutor:snore",
    "tutor:steelroller",
    "tutor:substitute",
    "tutor:swagger",
    "tutor:waterpulse",
    "tutor:waterspout",
    "tutor:zenheadbutt"
  ],
  "labels": [
    "gen3"
  ],
  "pokedex": [
    "cobblemon.species.wailord.desc"
  ],
  "preEvolution": "wailmer",
  "evolutions": [],
  "baseScale": 1.3,
  "hitbox": {
    "width": 3.5,
    "height": 2.3,
    "fixed": false
  },
  "baseFriendship": 50,
  "evYield": {
    "hp": 2,
    "attack": 0,
    "defence": 0,
    "special_attack": 0,
    "special_defence": 0,
    "speed": 0
  },
  "height": 145,
  "weight": 3980,
  "aspects": [],
  "cannotDynamax": false
}