{
  "credit": "EikoBiko",
  "textures": {
    "mint": "cobblemon:block/white_mint_stage_2",
    "particle": "cobblemon:block/white_mint_stage_2"
  },
  "elements": [
    {
      "from": [6.5, 4, 6.5],
      "to": [9.5, 4, 9.5],
      "rotation": {"angle": 0, "axis": "y", "origin": [0, -4, 0]},
      "faces": {
        "north": {"uv": [0, 0, 3, 0], "texture": "mint"},
        "east": {"uv": [0, 0, 3, 0], "texture": "mint"},
        "south": {"uv": [0, 0, 3, 0], "texture": "mint"},
        "west": {"uv": [0, 0, 3, 0], "texture": "mint"},
        "up": {"uv": [13, 13, 16, 16], "texture": "mint"},
        "down": {"uv": [12, 10, 15, 13], "texture": "mint"}
      }
    },
    {
      "from": [2.5, 4, 5],
      "to": [6.5, 4, 10],
      "rotation": {"angle": 22.5, "axis": "z", "origin": [6.5, 4, 7.5]},
      "faces": {
        "north": {"uv": [9.5, 8, 13.5, 8], "texture": "mint"},
        "east": {"uv": [5.5, 8, 10.5, 8], "texture": "mint"},
        "south": {"uv": [2.5, 8, 6.5, 8], "texture": "mint"},
        "west": {"uv": [5.5, 8, 10.5, 8], "texture": "mint"},
        "up": {"uv": [10, 0, 14, 5], "rotation": 180, "texture": "mint"},
        "down": {"uv": [10, 5, 14, 10], "rotation": 180, "texture": "mint"}
      }
    },
    {
      "from": [8, -1, 3],
      "to": [8, 4, 13],
      "rotation": {"angle": 0, "axis": "y", "origin": [8, 3, 8]},
      "faces": {
        "north": {"uv": [0, 0, 0, 8], "texture": "mint"},
        "east": {"uv": [0, 3, 10, 8], "texture": "mint"},
        "south": {"uv": [0, 0, 0, 8], "texture": "mint"},
        "west": {"uv": [0, 3, 10, 8], "texture": "mint"},
        "up": {"uv": [10, 0, 0, 0], "rotation": 270, "texture": "mint"},
        "down": {"uv": [10, 0, 0, 0], "rotation": 90, "texture": "mint"}
      }
    },
    {
      "from": [3, -1, 8],
      "to": [13, 4, 8],
      "rotation": {"angle": 0, "axis": "y", "origin": [8, 3, 8]},
      "faces": {
        "north": {"uv": [0, 3, 10, 8], "texture": "mint"},
        "east": {"uv": [0, 0, 0, 8], "texture": "mint"},
        "south": {"uv": [0, 3, 10, 8], "texture": "mint"},
        "west": {"uv": [0, 0, 0, 8], "texture": "mint"},
        "up": {"uv": [10, 0, 0, 0], "texture": "mint"},
        "down": {"uv": [10, 0, 0, 0], "texture": "mint"}
      }
    },
    {
      "from": [9.5, 4, 6],
      "to": [13.5, 4, 11],
      "rotation": {"angle": -22.5, "axis": "z", "origin": [9.5, 4, 8.5]},
      "faces": {
        "north": {"uv": [2.5, 8, 6.5, 8], "texture": "mint"},
        "east": {"uv": [5.5, 8, 10.5, 8], "texture": "mint"},
        "south": {"uv": [9.5, 8, 13.5, 8], "texture": "mint"},
        "west": {"uv": [5.5, 8, 10.5, 8], "texture": "mint"},
        "up": {"uv": [10, 0, 14, 5], "texture": "mint"},
        "down": {"uv": [10, 5, 14, 10], "texture": "mint"}
      }
    },
    {
      "from": [6, 4, 2.5],
      "to": [11, 4, 6.5],
      "rotation": {"angle": -22.5, "axis": "x", "origin": [8.5, 4, 6.5]},
      "faces": {
        "north": {"uv": [5.5, 8, 10.5, 8], "texture": "mint"},
        "east": {"uv": [9.5, 8, 13.5, 8], "texture": "mint"},
        "south": {"uv": [5.5, 8, 10.5, 8], "texture": "mint"},
        "west": {"uv": [2.5, 8, 6.5, 8], "texture": "mint"},
        "up": {"uv": [10, 0, 14, 5], "rotation": 270, "texture": "mint"},
        "down": {"uv": [10, 5, 14, 10], "rotation": 90, "texture": "mint"}
      }
    },
    {
      "from": [5, 4, 9.5],
      "to": [10, 4, 13.5],
      "rotation": {"angle": 22.5, "axis": "x", "origin": [7.5, 4, 9.5]},
      "faces": {
        "north": {"uv": [5.5, 8, 10.5, 8], "texture": "mint"},
        "east": {"uv": [2.5, 8, 6.5, 8], "texture": "mint"},
        "south": {"uv": [5.5, 8, 10.5, 8], "texture": "mint"},
        "west": {"uv": [9.5, 8, 13.5, 8], "texture": "mint"},
        "up": {"uv": [10, 0, 14, 5], "rotation": 90, "texture": "mint"},
        "down": {"uv": [10, 5, 14, 10], "rotation": 270, "texture": "mint"}
      }
    }
  ],
  "display": {
    "thirdperson_righthand": {
      "translation": [0, 4, 1]
    },
    "ground": {
      "translation": [0, 5.5, 0]
    },
    "gui": {
      "rotation": [45, 45, 0],
      "translation": [0, 2.75, 0]
    },
    "head": {
      "translation": [0, 15, 0]
    }
  },
  "groups": [
    {
      "name": "mint3",
      "origin": [8, 8, 8],
      "color": 0,
      "children": [0, 1, 2, 3, 4, 5, 6]
    }
  ]
}